\relax 
\catcode `:\active 
\catcode `;\active 
\catcode `!\active 
\catcode `?\active 
\select@language{french}
\@writefile{toc}{\select@language{french}}
\@writefile{lof}{\select@language{french}}
\@writefile{lot}{\select@language{french}}
\@writefile{toc}{\contentsline {section}{\numberline {1}Remise en marche de la machine}{1}}
\@writefile{toc}{\contentsline {section}{\numberline {2}Vie du projet}{1}}
\@writefile{toc}{\contentsline {section}{\numberline {3}Objectifs futurs}{2}}
