\relax 
\catcode`:\active
\catcode`;\active
\catcode`!\active
\catcode`?\active
\providecommand\HyperFirstAtBeginDocument{\AtBeginDocument}
\HyperFirstAtBeginDocument{\ifx\hyper@anchor\@undefined
\global\let\oldcontentsline\contentsline
\gdef\contentsline#1#2#3#4{\oldcontentsline{#1}{#2}{#3}}
\global\let\oldnewlabel\newlabel
\gdef\newlabel#1#2{\newlabelxx{#1}#2}
\gdef\newlabelxx#1#2#3#4#5#6{\oldnewlabel{#1}{{#2}{#3}}}
\AtEndDocument{\ifx\hyper@anchor\@undefined
\let\contentsline\oldcontentsline
\let\newlabel\oldnewlabel
\fi}
\fi}
\global\let\hyper@last\relax 
\gdef\HyperFirstAtBeginDocument#1{#1}
\providecommand\HyField@AuxAddToFields[1]{}
\select@language{french}
\@writefile{toc}{\select@language{french}}
\@writefile{lof}{\select@language{french}}
\@writefile{lot}{\select@language{french}}
\@writefile{toc}{\contentsline {section}{\numberline {1}Objectifs du projet}{1}{section.1}}
\@writefile{toc}{\contentsline {subsection}{\numberline {1.1}Contexte : qu'est-ce que le projet RubENS ?}{1}{subsection.1.1}}
\@writefile{toc}{\contentsline {subsection}{\numberline {1.2}Objectifs du projet : construire une nouvelle machine de Turing en \textsc  {lego}{\relax \fontsize  {8}{9.5}\selectfont  \texttrademark }\xspace  \IeC {\`a} Santiago !}{2}{subsection.1.2}}
\@writefile{toc}{\contentsline {subsubsection}{\numberline {1.2.1}Am\IeC {\'e}liorer la robustesse de la construction}{2}{subsubsection.1.2.1}}
\@writefile{toc}{\contentsline {subsubsection}{\numberline {1.2.2}Cr\IeC {\'e}er un kit de diffusion.}{2}{subsubsection.1.2.2}}
\@writefile{toc}{\contentsline {subsubsection}{\numberline {1.2.3}Construire une machine de Turing en \textsc  {lego}{\relax \fontsize  {8}{9.5}\selectfont  \texttrademark }\xspace  \IeC {\`a} Santiago.}{2}{subsubsection.1.2.3}}
\@writefile{toc}{\contentsline {section}{\numberline {2}Actions}{3}{section.2}}
\@writefile{toc}{\contentsline {subsection}{\numberline {2.1}Organisation}{3}{subsection.2.1}}
\@writefile{toc}{\contentsline {subsection}{\numberline {2.2}\IeC {\'E}tapes}{3}{subsection.2.2}}
\@writefile{toc}{\contentsline {subsubsection}{\numberline {2.2.1}Concours}{3}{subsubsection.2.2.1}}
\@writefile{toc}{\contentsline {subsubsection}{\numberline {2.2.2}Stage}{3}{subsubsection.2.2.2}}
\@writefile{toc}{\contentsline {subsubsection}{\numberline {2.2.3}Machine santiaguina}{4}{subsubsection.2.2.3}}
\@writefile{toc}{\contentsline {subsection}{\numberline {2.3}Co-Financement}{4}{subsection.2.3}}
\@writefile{toc}{\contentsline {section}{\numberline {3}Calendrier}{4}{section.3}}
\@writefile{toc}{\contentsline {section}{\numberline {4}Lieux du projet}{5}{section.4}}
