\relax 
\@writefile{toc}{\contentsline {section}{\numberline {1}Travail effectu\IeC {\'e}}{1}}
\@writefile{toc}{\contentsline {subsection}{\numberline {1.1}Lundi}{1}}
\@writefile{toc}{\contentsline {subsection}{\numberline {1.2}Mardi}{1}}
\@writefile{toc}{\contentsline {subsection}{\numberline {1.3}Mercredi}{2}}
\@writefile{toc}{\contentsline {subsection}{\numberline {1.4}Jeudi}{2}}
\@writefile{toc}{\contentsline {subsection}{\numberline {1.5}Vendredi}{3}}
\@writefile{toc}{\contentsline {section}{\numberline {2}Perspectives}{3}}
