\relax 
\@writefile{toc}{\contentsline {section}{\numberline {1}D\IeC {\'e}tails de la machine}{1}}
\@writefile{toc}{\contentsline {subsection}{\numberline {1.1}Le compresseur}{1}}
\@writefile{lof}{\contentsline {figure}{\numberline {1}{\ignorespaces Photo du compresseur \IeC {\'e}teint\relax }}{1}}
\@writefile{toc}{\contentsline {subsection}{\numberline {1.2}Les moteurs}{1}}
\@writefile{lof}{\contentsline {figure}{\numberline {2}{\ignorespaces Diff\IeC {\'e}rentes configurations du moteur\relax }}{2}}
\providecommand*\caption@xref[2]{\@setref\relax\@undefined{#1}}
\newlabel{Fig:moteur3cylindres}{{2}{2}}
\@writefile{lof}{\contentsline {figure}{\numberline {3}{\ignorespaces Photo des deux moteurs de la machine\relax }}{2}}
\@writefile{toc}{\contentsline {subsection}{\numberline {1.3}L'ordonnanceur}{2}}
\@writefile{lof}{\contentsline {figure}{\numberline {4}{\ignorespaces Photo de l'ordonnanceur avec ses deux boites \IeC {\`a} musique\relax }}{3}}
\@writefile{lof}{\contentsline {figure}{\numberline {5}{\ignorespaces Ordonnancement de la machine sur un cycle de 10 unit\IeC {\'e}s\relax }}{4}}
\newlabel{Fig:ordonnancement}{{5}{4}}
\@writefile{toc}{\contentsline {subsection}{\numberline {1.4}L'\IeC {\'e}tat}{4}}
\@writefile{lof}{\contentsline {figure}{\numberline {6}{\ignorespaces Syst\IeC {\`e}me piston-levier de l'\IeC {\'e}tat\relax }}{4}}
\@writefile{toc}{\contentsline {subsection}{\numberline {1.5}La table de transition}{4}}
\@writefile{toc}{\contentsline {subsubsection}{\numberline {1.5.1}Le s\IeC {\'e}lecteur}{4}}
\@writefile{lof}{\contentsline {figure}{\numberline {7}{\ignorespaces Photo du s\IeC {\'e}lecteur de la table de transition\relax }}{5}}
\@writefile{toc}{\contentsline {subsection}{\numberline {1.6}Le portique}{5}}
\@writefile{toc}{\contentsline {subsection}{\numberline {1.7}La lecture}{5}}
\@writefile{lof}{\contentsline {figure}{\numberline {8}{\ignorespaces Sch\IeC {\'e}ma du s\IeC {\'e}lecteur de la table de transition\relax }}{6}}
\@writefile{lof}{\contentsline {figure}{\numberline {9}{\ignorespaces Syst\IeC {\`e}me de lecture\relax }}{7}}
